%YAML 1.1
%TAG !u! tag:unity3d.com,2011:
--- !u!114 &11400000
MonoBehaviour:
  m_ObjectHideFlags: 0
  m_CorrespondingSourceObject: {fileID: 0}
  m_PrefabInstance: {fileID: 0}
  m_PrefabAsset: {fileID: 0}
  m_GameObject: {fileID: 0}
  m_Enabled: 1
  m_EditorHideFlags: 0
  m_Script: {fileID: 11500000, guid: e95284ba0b6ee0a459437eff1804a995, type: 3}
  m_Name: Raiden
  m_EditorClassIdentifier: 
  Name: "\u0420\u0430\u0439\u0434\u0435\u043D"
  emotion:
  - {fileID: 0}
  - {fileID: 6593512692567096251, guid: df03b3da8819d4e4797704e6f5b43ed0, type: 3}
  sympaty: 0
